<?xml version="1.0" encoding="UTF-8" standalone="no"?>
<!-- Created with Inkscape (http://www.inkscape.org/) -->

<svg
   xmlns:dc="http://purl.org/dc/elements/1.1/"
   xmlns:cc="http://creativecommons.org/ns#"
   xmlns:rdf="http://www.w3.org/1999/02/22-rdf-syntax-ns#"
   xmlns:svg="http://www.w3.org/2000/svg"
   xmlns="http://www.w3.org/2000/svg"
   xmlns:sodipodi="http://sodipodi.sourceforge.net/DTD/sodipodi-0.dtd"
   xmlns:inkscape="http://www.inkscape.org/namespaces/inkscape"
   width="55.052963mm"
   height="53.785229mm"
   viewBox="0 0 55.052963 53.785226"
   version="1.1"
   id="svg859"
   sodipodi:docname="wizard_new_year.svg"
   inkscape:version="0.92.5 (2060ec1f9f, 2020-04-08)"
   inkscape:export-filename="/home/vincent/STORAGE_V/Seafile/ADEexplorer/src/resources/pix/new_year.png"
   inkscape:export-xdpi="69.021744"
   inkscape:export-ydpi="69.021744">
  <defs
     id="defs853" />
  <sodipodi:namedview
     id="base"
     pagecolor="#ffffff"
     bordercolor="#666666"
     borderopacity="1.0"
     inkscape:pageopacity="0.0"
     inkscape:pageshadow="2"
     inkscape:zoom="2.1344904"
     inkscape:cx="215.65664"
     inkscape:cy="76.157139"
     inkscape:document-units="mm"
     inkscape:current-layer="layer1"
     showgrid="false"
     inkscape:snap-global="false"
     inkscape:window-width="1556"
     inkscape:window-height="836"
     inkscape:window-x="44"
     inkscape:window-y="27"
     inkscape:window-maximized="1" />
  <metadata
     id="metadata856">
    <rdf:RDF>
      <cc:Work
         rdf:about="">
        <dc:format>image/svg+xml</dc:format>
        <dc:type
           rdf:resource="http://purl.org/dc/dcmitype/StillImage" />
        <dc:title></dc:title>
      </cc:Work>
    </rdf:RDF>
  </metadata>
  <g
     inkscape:label="Calque 1"
     inkscape:groupmode="layer"
     id="layer1"
     transform="translate(-302.72599,-395.39607)">
    <path
       inkscape:connector-curvature="0"
       id="path950"
       d="m 347.53565,433.20775 c 0.18789,-0.1879 3.84297,0.96168 5.63586,1.77257 1.98197,0.8964 3.92557,2.62956 4.33289,3.86377 1.24559,3.77416 -5.04448,7.46737 -16.01691,9.40432 -2.25966,0.39889 -4.47817,0.53436 -9.92188,0.60585 -3.8563,0.0507 -7.48771,0.0431 -8.06979,-0.0168 l -4e-5,3.2e-4 c -13.01313,-1.33851 -21.94068,-5.67304 -20.52421,-9.96499 0.38686,-1.1722 1.91083,-2.61512 3.81478,-3.61191 1.57292,-0.82348 5.8433,-2.0567 6.15953,-2.05667 0.11948,-1.0035 0.66796,-1.06193 0.89261,-0.77261 0,-0.73714 1.84745,-6.40114 3.89364,-11.93732 l 1.97973,-5.35635 c 0,0 1.34419,-3.02075 1.87493,-4.3024 1.15407,-2.78685 4.95222,-10.28241 5.96905,-11.77975 1.61866,-2.38359 3.31993,-3.22867 5.69452,-3.6239 1.99353,-0.3318 8.03543,3.21609 9.94437,5.44065 2.27454,2.65059 1.95016,2.7297 -3.53755,3.20717 -1.90377,0.16565 -3.50112,0.32972 -3.54968,0.36461 -0.0486,0.0349 0.56786,1.53184 1.3698,3.32655 3.02577,6.77154 3.05308,7.64072 3.25699,8.53724 0.29531,0.7063 1.76623,3.903 2.07666,4.64869 0.28555,0.46204 3.83587,11.1512 3.83587,11.5489 0.3299,-0.432 0.71055,-0.12259 0.88883,0.70206 z"
       style="fill:#ffd009;fill-opacity:1;stroke-width:0.26458335"
       sodipodi:nodetypes="cccccccscccscccssccscccc" />
    <path
       style="fill:#ffd009;fill-opacity:1;stroke-width:0.26458335"
       d="m 307.63511,428.69402 c -0.1738,-0.79131 -0.86649,-1.58471 -1.86641,-2.13774 -0.39536,-0.21867 -0.4246,-0.29471 -0.11565,-0.30072 0.58919,-0.0115 1.76392,-1.32671 1.98564,-2.22314 l 0.18795,-0.75988 0.37434,0.89029 c 0.46537,1.10679 1.36215,2.08436 1.91331,2.08567 0.2293,5.3e-4 0.023,0.24113 -0.45837,0.53463 -0.50073,0.30529 -1.08313,0.9979 -1.36101,1.61855 l -0.48572,1.0849 z"
       id="path946" />
    <path
       style="fill:#ffd009;fill-opacity:1;stroke-width:0.26458335"
       d="m 351.52605,426.55001 c -0.27661,-0.69112 -0.78134,-1.3473 -1.26043,-1.63865 l -0.79908,-0.48595 0.72665,-0.33109 c 0.73367,-0.33428 1.48072,-1.44386 1.48072,-2.19929 0,-0.22551 0.11906,-0.41002 0.26458,-0.41002 0.14552,0 0.26458,0.25656 0.26458,0.57014 0,0.32196 0.46553,1.01297 1.06948,1.5875 0.58821,0.55955 0.97516,1.02001 0.85989,1.02325 -0.53804,0.0151 -1.45862,1.04096 -1.78453,1.98862 l -0.36049,1.0482 z"
       id="path944" />
    <path
       style="fill:#ffd009;fill-opacity:1;stroke-width:0.26458335"
       d="m 317.30826,402.55117 c -0.18738,-0.5182 -0.46668,-1.02564 -0.80814,-1.18122 l -1.30013,-0.56774 1.43428,-0.61568 c 0.49961,-0.47119 0.90838,-1.05101 0.90838,-1.28849 0,-0.58443 0.52695,-0.55381 0.53759,0.0312 0.0109,0.59947 0.49396,1.21787 1.27744,1.63531 l 0.62441,0.33268 -0.82949,0.50444 c -0.52747,0.32077 -0.88728,0.79339 -0.9882,1.29804 -0.20841,1.04204 -0.44014,1.00183 -0.85614,-0.14858 z"
       id="path940" />
    <path
       style="fill:#712d90;fill-opacity:1;stroke-width:0.26458335"
       d="m 323.49578,448.83778 c -13.01313,-1.33851 -21.94068,-5.67304 -20.52421,-9.96499 0.38686,-1.1722 1.91083,-2.61512 3.81478,-3.61191 1.57292,-0.82348 5.93592,-2.28028 6.15953,-2.05667 0.0675,0.0675 -0.02,0.68932 -0.19439,1.38188 -0.27669,1.09887 -0.25615,1.37231 0.16135,2.14756 0.96089,1.78426 4.29229,3.28098 9.42418,4.23409 3.4775,0.64585 12.33008,0.64657 15.80385,0.001 5.21369,-0.96848 8.82828,-2.62589 9.55548,-4.3815 0.26384,-0.63698 0.27003,-1.07785 0.0286,-2.03679 -0.16949,-0.67311 -0.25468,-1.27733 -0.1893,-1.3427 0.18789,-0.1879 3.84297,0.96168 5.63586,1.77257 1.98197,0.8964 3.92557,2.62956 4.33289,3.86377 1.24559,3.77416 -5.04448,7.46737 -16.01691,9.40432 -2.25966,0.39889 -4.47817,0.53436 -9.92188,0.60585 -3.8563,0.0507 -7.48771,0.0431 -8.06979,-0.0168 z m 2.24896,-12.69468 c -2.77747,-0.3299 -6.30806,-1.00153 -7.74571,-1.47349 -2.34581,-0.77009 -4.16054,-1.74626 -4.16054,-2.23801 0,-0.73714 1.84745,-6.40114 3.89364,-11.93732 l 1.97973,-5.35635 0.66629,0.5241 c 0.83326,0.65544 1.13325,0.48262 1.13325,-0.65286 0,-0.65909 0.18778,-1.03063 0.72761,-1.43962 0.70933,-0.53742 0.7147,-0.56123 0.21401,-0.94811 -0.28247,-0.21826 -0.72236,-0.39685 -0.97752,-0.39685 -0.42806,0 -0.41945,-0.10741 0.11129,-1.38906 1.15407,-2.78685 4.95222,-10.28241 5.96905,-11.77975 1.61866,-2.38359 3.50419,-3.49994 5.91144,-3.49994 1.18816,0 1.29931,0.0467 0.99197,0.41705 -0.3649,0.43968 -0.31604,0.50594 0.87663,1.18862 0.27727,0.15871 0.46303,0.57974 0.46303,1.04948 0,0.87377 0.51214,1.04568 1.07931,0.36228 0.25701,-0.30967 0.61227,-0.38027 1.33339,-0.26496 0.66767,0.10676 1.01827,0.0515 1.09286,-0.17227 0.13273,-0.39821 1.50675,0.59383 3.70433,2.67451 2.53627,2.40135 2.13609,2.79168 -3.35162,3.26915 -1.90377,0.16565 -3.50112,0.32972 -3.54968,0.36461 -0.0486,0.0349 0.56786,1.53184 1.3698,3.32655 3.02577,6.77154 3.36297,7.73369 3.02457,8.63021 -0.2315,0.61333 -0.51911,0.85063 -1.18156,0.97491 -1.0447,0.19599 -1.12556,0.70938 -0.20657,1.31152 0.52789,0.34589 0.65614,0.62938 0.60801,1.344 -0.0809,1.20114 0.13198,1.35131 1.02286,0.72156 0.76097,-0.53792 1.66294,-0.44899 2.06634,0.20373 0.28555,0.46204 3.83587,11.1512 3.83587,11.5489 0,0.19183 -0.68461,0.69234 -1.52135,1.11225 -3.27774,1.64486 -7.53445,2.42939 -13.82448,2.5479 -2.54662,0.048 -5.04693,0.0378 -5.55625,-0.0228 z m 11.29861,-4.17223 c -0.0987,-0.63253 0.0273,-0.99563 0.53263,-1.53467 0.76234,-0.81315 0.66146,-1.14775 -0.41067,-1.36218 -0.52559,-0.10512 -0.86487,-0.40238 -1.09593,-0.96021 -0.4213,-1.0171 -0.80903,-1.02061 -1.38265,-0.0125 -0.36764,0.6461 -0.62365,0.79208 -1.38906,0.79208 -1.08533,0 -1.22821,0.44942 -0.38537,1.21218 0.4379,0.39629 0.5212,0.6992 0.40026,1.4555 -0.19379,1.21188 -0.0511,1.33935 1.00506,0.89804 0.76239,-0.31855 0.9404,-0.30315 1.61556,0.13975 0.94844,0.62217 1.27635,0.43669 1.11017,-0.62795 z m -12.53027,-6.22312 c 0.69973,-0.46133 0.82567,-0.46762 1.78879,-0.0893 0.56983,0.22383 1.10988,0.33315 1.2001,0.24293 0.0902,-0.0902 0.0451,-0.63255 -0.10023,-1.20517 -0.23339,-0.9195 -0.19218,-1.12925 0.35277,-1.79544 0.91454,-1.11801 0.81056,-1.41577 -0.4944,-1.41577 -1.02057,0 -1.17893,-0.09 -1.62916,-0.92604 -0.64652,-1.20052 -1.0542,-1.16965 -1.56977,0.1189 -0.34764,0.86883 -0.57593,1.07454 -1.35457,1.22061 -1.30017,0.24392 -1.4144,0.61109 -0.43942,1.4125 0.70095,0.57617 0.8361,0.86977 0.8341,1.81205 -0.003,1.26946 0.25855,1.38506 1.41179,0.62472 z m 7.84624,-13.98868 c 0,-0.70814 0.15244,-1.08989 0.52917,-1.32516 0.76525,-0.47791 0.64985,-1.02945 -0.25319,-1.21006 -0.52697,-0.10539 -0.92558,-0.43342 -1.2211,-1.0049 l -0.43874,-0.84843 -0.49281,0.6411 c -0.27105,0.35261 -0.49546,0.7304 -0.49869,0.83954 -0.003,0.10914 -0.42261,0.19843 -0.93193,0.19843 -1.07728,0 -1.10261,0.0672 -0.39809,1.05663 0.38079,0.53477 0.4822,0.97023 0.3638,1.5622 -0.18007,0.90036 0.0169,0.99816 1.05642,0.52453 0.51915,-0.23654 0.77341,-0.20989 1.26194,0.13229 0.88519,0.62002 1.02322,0.54364 1.02322,-0.56617 z"
       id="path936"
       inkscape:connector-curvature="0" />
  </g>
</svg>
