<?xml version="1.0" encoding="UTF-8" standalone="no"?>
<!-- Created with Inkscape (http://www.inkscape.org/) -->

<svg
   xmlns:dc="http://purl.org/dc/elements/1.1/"
   xmlns:cc="http://creativecommons.org/ns#"
   xmlns:rdf="http://www.w3.org/1999/02/22-rdf-syntax-ns#"
   xmlns:svg="http://www.w3.org/2000/svg"
   xmlns="http://www.w3.org/2000/svg"
   xmlns:sodipodi="http://sodipodi.sourceforge.net/DTD/sodipodi-0.dtd"
   xmlns:inkscape="http://www.inkscape.org/namespaces/inkscape"
   width="5.2916713mm"
   height="54.078789mm"
   viewBox="0 0 5.2916712 54.078787"
   version="1.1"
   id="svg838"
   inkscape:version="0.92.5 (2060ec1f9f, 2020-04-08)"
   sodipodi:docname="curly_brace_right.svg">
  <defs
     id="defs832" />
  <sodipodi:namedview
     id="base"
     pagecolor="#ffffff"
     bordercolor="#666666"
     borderopacity="1.0"
     inkscape:pageopacity="0.0"
     inkscape:pageshadow="2"
     inkscape:zoom="0.43886719"
     inkscape:cx="567.46388"
     inkscape:cy="281.56273"
     inkscape:document-units="mm"
     inkscape:current-layer="layer1"
     showgrid="false"
     inkscape:window-width="1556"
     inkscape:window-height="836"
     inkscape:window-x="44"
     inkscape:window-y="27"
     inkscape:window-maximized="1" />
  <metadata
     id="metadata835">
    <rdf:RDF>
      <cc:Work
         rdf:about="">
        <dc:format>image/svg+xml</dc:format>
        <dc:type
           rdf:resource="http://purl.org/dc/dcmitype/StillImage" />
        <dc:title></dc:title>
      </cc:Work>
    </rdf:RDF>
  </metadata>
  <g
     inkscape:label="Calque 1"
     inkscape:groupmode="layer"
     id="layer1"
     transform="translate(100.08123,-129.30169)">
    <path
       style="fill:#000000;stroke-width:0.03648389"
       d="m -100.05568,156.345 c 0.719596,0.57407 1.078543,1.08435 1.362125,1.93639 0.157642,0.47363 0.304002,1.2296 0.368712,1.90442 0.107169,1.11761 0.10729,1.12623 0.124506,8.88158 0.01047,4.72012 0.0246,7.45257 0.03995,7.72791 0.07945,1.42561 0.152077,2.1452 0.302013,2.99218 0.396699,2.24091 1.154298,3.26027 2.640145,3.55232 0.326827,0.0643 0.456303,0.0528 0.423822,-0.0376 -0.0062,-0.0173 -0.125313,-0.0973 -0.264604,-0.17765 -1.194378,-0.68897 -1.776948,-2.2486 -1.962569,-5.25412 -0.07421,-1.20166 -0.08631,-2.43038 -0.08663,-8.80306 -3.45e-4,-6.63247 -0.0084,-7.24385 -0.110572,-8.39857 -0.196588,-2.2214 -0.692673,-3.47426 -1.659914,-4.1921 -0.101597,-0.0754 -0.188011,-0.16453 -0.192027,-0.19805 -0.004,-0.0335 0.07419,-0.12261 0.173785,-0.19796 0.266517,-0.20163 0.596127,-0.57348 0.782645,-0.88295 0.553872,-0.91896 0.818023,-2.11173 0.955286,-4.31356 0.02986,-0.47891 0.03701,-1.58206 0.05018,-7.7388 0.01365,-6.38036 0.01957,-7.25144 0.05311,-7.81919 0.111209,-1.88223 0.281141,-2.97532 0.613594,-3.94697 0.32918,-0.96207 0.798252,-1.58005 1.422233,-1.87372 0.125134,-0.0589 0.222699,-0.12876 0.216814,-0.15526 -0.02837,-0.12768 -0.83956,0.014 -1.266402,0.22114 -0.729022,0.35383 -1.219067,1.03815 -1.544659,2.15705 -0.211313,0.72618 -0.382398,1.79621 -0.468223,2.92842 -0.103495,1.36532 -0.103249,1.34708 -0.119767,8.91448 -0.01074,4.91985 -0.02368,7.33351 -0.04112,7.66707 -0.0926,1.77151 -0.302691,2.88176 -0.691261,3.65307 -0.199023,0.39506 -0.549536,0.84028 -0.869611,1.10459 -0.260451,0.21507 -0.318471,0.29554 -0.251561,0.34892 z"
       id="path1394"
       inkscape:connector-curvature="0" />
  </g>
</svg>
